<svg viewBox="0 0 318 89" xmlns="http://www.w3.org/2000/svg">
  <path d="m58.122 81.541-2.776-9.95.342-.131 5.447 8.737c2.676-1.203 5.314-2.907 7.451-4.699l-4.977-8.013.285-.237 7.08 6.225c2.365-2.015 4.536-4.564 6.146-6.993l-6.486-5.779.2-.31 7.916 3.58c1.749-2.714 3.202-5.89 4.064-9.022l-7.177-3.328.089-.357 7.856.932c.846-3.132 1.223-6.55 1.187-9.997H58.807c-.031 8.97-7.312 16.235-16.29 16.235-8.997 0-16.291-7.294-16.291-16.289 0-8.24 6.117-15.05 14.057-16.139L33.679.744c-1.404.233-3.162.689-4.461 1.194l6.54 23.653-.361.136L23.252 4.414c-1.456.643-3.088 1.622-4.317 2.525l12.012 19.865-.293.233L14.151 10.65c-1.219 1.002-2.645 2.41-3.596 3.638l15.933 15.181-.24.288L7.15 18.729c-1.037 1.366-2.077 3.241-2.757 4.783l18.251 10.049-.14.35-20.12-5.587a29.514 29.514 0 0 0-1.53 5.673l19.152 4.682-.067.382-19.765.009C.11 40.023 0 41.221 0 42.191c0 .943.105 2.079.165 3.006l18.6-.157.038.357L.759 49.896c.33 2.138.878 4.256 1.64 6.217l16.768-4.599.145.339-15.209 8.421a34.894 34.894 0 0 0 3.337 5.818l13.798-7.984.228.292-11.427 11.104a33.26 33.26 0 0 0 4.888 4.917l10.275-10.166.3.216-7.344 12.449a33.742 33.742 0 0 0 6.246 3.622l6.637-11.378.348.137-3.44 12.714c2.258.895 4.708 1.527 7.261 1.925l3.205-11.758.366.06.078 12.159c1.175.099 2.355.202 3.556.202 1.438 0 2.859-.125 4.26-.264l.005-11.28.366-.051 3.083 10.842a33.521 33.521 0 0 0 7.978-2.303zM44.714-.098a26.125 26.125 0 0 0-2.28-.107c-.628 0-1.501.033-2.106.097l.234 26.077a16.453 16.453 0 0 1 3.926.003zm.24 26.134a16.12 16.12 0 0 1 3.633.986l7.055-25.074A23.466 23.466 0 0 0 51.604.84Zm4.249 1.249a16.146 16.146 0 0 1 3.096 1.834L65.744 6.84c-.971-.699-2.37-1.567-3.478-2.067Zm25.004-13.074c-.68-.83-1.736-1.973-2.587-2.69L53.057 29.724a16.115 16.115 0 0 1 2.266 2.353zm-17.929 19.21c.445.703.838 1.44 1.174 2.208L80.28 23.202c-.347-.811-.979-1.983-1.486-2.71zm2.327 6.148a15.96 15.96 0 0 0-.552-2.337l25.169-6.417c.267.761.536 1.955.665 2.74z" fill="currentColor" fill-rule="evenodd" />
  <path d="M125.869 16.694v-4.351c0-1.938-.69-2.952-2.397-2.952-1.938 0-2.444 1.245-2.398 2.952v17.103c-.046 1.707.46 2.952 2.398 2.952 1.707 0 2.397-1.013 2.397-2.952v-4.351h8.808v3.523c0 5.854-2.951 10.375-11.252 10.375-6.871 0-11.159-3.276-11.159-10.375V13.172c0-7.1 4.288-10.375 11.159-10.375 8.301 0 11.252 4.521 11.252 10.375v3.522zm50.381 21.538h8.618V3.337h-8.618zm-13.124 0h8.618V3.337h-8.618zm46.753-25.572.183 2.287h.138c.731-1.052 2.698-3.11 6.038-3.11 4.254 0 6.45 3.064 6.45 6.77v19.625h-8.28V20.345c.047-1.372-.824-2.058-1.739-2.058-.823 0-1.83.686-1.83 1.967v17.978h-8.233V12.66Zm-20.363 25.572h8.417V12.614h-8.417zm0-28.133h8.417V3.923h-8.417zm56.526 10.522h-7.565v-1.568c0-1.242-.826-2.214-2.164-2.214-1.414 0-2.078.708-2.078 1.707 0 1.217.717 1.943 2.568 2.843 1.151.561 2.393 1.163 3.821 1.854 4.931 2.383 6.154 4.33 6.154 7.478 0 4.623-3.383 8.207-10.422 8.207-6.701 0-10.053-3.395-10.053-8.716v-.967h7.656v2.075c0 1.432.838 2.305 2.397 2.305 1.371 0 2.215-.985 2.215-2.076 0-.635-.094-1.702-3.004-3.122-.664-.324-2.057-.986-2.797-1.349-3.551-1.735-6.004-3.281-6.004-7.794 0-4.476 3.414-7.748 9.637-7.748 7.107 0 9.639 3.947 9.639 8.395zm-107.153-.165c0-5.857 4.011-8.855 9.96-8.855 6.549 0 10.01 3.551 10.01 8.855v9.684c0 5.303-3.414 8.853-10.01 8.853-5.902 0-9.96-2.951-9.96-8.807zm8.091 11.159c0 .968.829 1.754 1.889 1.754.996 0 1.893-.693 1.893-1.754V18.981c0-1.062-.809-1.8-1.893-1.8-1.102 0-1.889.785-1.889 1.753z" fill="currentColor" fill-rule="evenodd" />
  <path d="M221.125 62.863h-7.564v-1.568c0-1.241-.825-2.212-2.166-2.212-1.414 0-2.078.707-2.078 1.707 0 1.215.717 1.942 2.568 2.842 1.153.56 2.394 1.162 3.824 1.853 4.929 2.385 6.154 4.331 6.154 7.478 0 4.624-3.383 8.208-10.424 8.208-6.701 0-10.053-3.396-10.053-8.716v-.967h7.657v2.075c0 1.433.837 2.305 2.396 2.305 1.371 0 2.215-.985 2.215-2.077 0-.634-.093-1.701-3.004-3.121-.663-.324-2.057-.987-2.797-1.349-3.551-1.736-6.004-3.281-6.004-7.795 0-4.476 3.414-7.747 9.638-7.747 7.104 0 9.638 3.946 9.638 8.394v.69m16.466 10.925c0 1.062-.896 1.753-1.892 1.753-1.061 0-1.891-.785-1.891-1.753v-12.68c0-.968.787-1.754 1.891-1.754 1.084 0 1.892.74 1.892 1.801zm1.426-20.02c-4.305 0-5.106 1.967-5.656 2.869h-.092l-.059-2.132h-7.474V89h8.072V78.864h.092c.711.926 1.687 2.261 5.033 2.261 5.207 0 6.776-3.579 6.776-7.284V60.875c0-3.788-1.856-7.107-6.692-7.107zM121.26 67.493l2.349-15.475h.092l2.257 15.475zm8.547-21.738h-11.716l-6.825 34.541h8.153l.967-6.725h6.355l1.152 6.725h8.196zm40.041 8.751.111 3.307h.092c.226-.977 1.554-4.044 5.667-4.044v8.29a13.1 13.1 0 0 0-2.211-.184c-1.879 0-3.039 1.158-3.039 3.422v14.999h-8.028v-25.79h7.408m92.239 18.379c0 1.12-.431 2.602-2.216 2.602-1.317 0-2.075-1.021-2.075-2.535 0-1.635.164-3.359 2.436-4.345.674-.293 1.855-.837 1.855-.837zm8.096 2.105V62.451c0-4.674-2.84-8.683-10.629-8.683-4.654 0-9.323 2.954-9.323 8.058v1.257h8.06v-1.784c0-1.053.757-1.909 1.91-1.909 1.218 0 1.886.691 1.886 1.602 0 2.05-1.75 2.704-3.712 3.454-.895.342-1.737.656-2.731 1.045-2.725 1.064-5.846 2.984-5.846 7.263v1.679c0 4.098 2.173 6.692 6.319 6.692 3.687 0 5.683-2.261 6.244-3.133l.213 2.304h8.209c-.323-.923-.6-2.675-.6-5.306zm36.541-13.877c0-1.016.74-1.8 1.799-1.8.924 0 1.801.692 1.801 1.753v2.998h-3.6zm11.346 8.115v-6.595c0-5.302-2.998-8.854-9.547-8.854-5.949 0-9.59 2.998-9.59 8.854v9.685c0 5.856 3.641 8.853 9.59 8.853 6.457 0 9.408-3.55 9.502-8.759v-.924h-7.701v2.35c0 1.062-.877 1.799-1.801 1.799-1.059 0-1.799-.829-1.799-1.799v-4.61zm-171.551-8.115c0-1.016.738-1.8 1.8-1.8.921 0 1.799.692 1.799 1.753v2.998h-3.599zm11.345 8.115v-6.595c0-5.302-2.998-8.854-9.545-8.854-5.95 0-9.592 2.998-9.592 8.854v9.685c0 5.856 3.642 8.853 9.592 8.853 6.455 0 9.406-3.55 9.499-8.759v-.924h-7.7v2.35c0 1.062-.878 1.799-1.799 1.799-1.062 0-1.8-.829-1.8-1.799v-4.61zm136.956 1.198v1.893c0 5.302-3.504 8.852-10.053 8.852-5.947 0-10.051-2.998-10.051-8.852v-9.686c0-5.856 4.104-8.854 10.051-8.854 6.549 0 10.053 3.552 10.053 8.854v1.615h-8.346v-3.089c0-1.061-.783-1.706-1.707-1.706-1.06 0-1.752.737-1.752 1.706v12.633c0 .971.692 1.708 1.752 1.708.924 0 1.707-.646 1.707-1.708v-3.366h8.346m-105.217 3.366c0 1.062-.896 1.754-1.893 1.754-1.06 0-1.888-.784-1.888-1.754v-12.68c0-.967.786-1.753 1.888-1.753 1.084 0 1.893.738 1.893 1.8zm-1.913-20.013c-5.948 0-9.96 2.998-9.96 8.854v9.731c0 5.857 4.059 8.807 9.96 8.807 6.596 0 10.01-3.55 10.01-8.853v-9.685c0-5.302-3.461-8.854-10.01-8.854z" fill="currentColor" fill-rule="evenodd" />
</svg>